…
For loop

``` r
output = vector("list", length = 500)

for (i in 1:500) {
  output[[i]] = sim_regression(n_subj = 30)
}

output %>% 
  bind_rows()
```

    ## # A tibble: 500 × 2
    ##    beta0_hat beta1_hat
    ##        <dbl>     <dbl>
    ##  1      1.90      3.05
    ##  2      2.13      2.87
    ##  3      1.97      2.95
    ##  4      1.77      3.45
    ##  5      2.11      2.98
    ##  6      1.82      3.01
    ##  7      1.89      2.91
    ##  8      1.60      3.10
    ##  9      1.84      2.96
    ## 10      1.56      3.23
    ## # ℹ 490 more rows
…
